Type,Slice,X,Y,Label
3,1,38,40,cycling
3,2,40,41,cycling
3,3,40,41,cycling
3,4,40,41,cycling
3,5,46,40,cycling
3,6,43,40,cycling
3,7,43,40,cycling
3,8,43,40,cycling
3,9,43,40,cycling
3,10,41,37,cycling
3,11,44,37,cycling
3,12,43,40,cycling
3,13,43,40,cycling
3,14,41,39,cycling
3,15,38,41,cycling
3,16,38,41,cycling
3,17,39,41,cycling
3,18,39,41,cycling
3,19,39,41,cycling
3,20,39,41,cycling
3,21,41,43,cycling
3,22,41,43,cycling
3,23,41,43,cycling
3,24,41,43,cycling
3,25,41,43,cycling
3,26,39,41,cycling
3,27,39,42,cycling
3,28,39,42,cycling
3,29,39,42,cycling
3,30,39,42,cycling
3,31,39,42,cycling
3,32,38,42,cycling
3,33,38,42,cycling
3,34,38,41,cycling
2,35,42,45,dead
2,36,40,41,dead
2,37,31,42,dead
2,38,36,40,dead
2,39,36,40,dead
2,40,39,41,dead
2,41,39,41,dead
1,42,40,39,shmoo
1,43,40,39,shmoo
1,44,40,39,shmoo
1,45,33,57,shmoo
1,46,41,44,shmoo
1,47,41,44,shmoo
1,48,39,36,shmoo
1,49,39,36,shmoo
1,50,39,36,shmoo
1,51,39,36,shmoo
1,52,39,36,shmoo
1,53,39,36,shmoo
1,54,39,36,shmoo
1,55,39,36,shmoo
1,56,39,36,shmoo
1,57,39,36,shmoo
1,58,39,36,shmoo
1,59,39,36,shmoo
1,60,41,42,shmoo
1,61,41,42,shmoo
1,62,41,42,shmoo
1,63,41,42,shmoo
1,64,41,42,shmoo
1,65,41,42,shmoo
1,66,41,42,shmoo
1,67,41,42,shmoo
1,68,41,42,shmoo
1,69,41,42,shmoo
1,70,41,42,shmoo
1,71,41,42,shmoo
3,72,40,35,cycling
3,73,41,43,cycling
3,74,41,43,cycling
3,75,41,43,cycling
3,76,41,43,cycling
2,77,40,42,dead
2,78,37,40,dead
2,79,41,40,dead
2,80,41,40,dead
2,81,41,40,dead
1,82,40,41,shmoo
1,83,38,50,shmoo
1,84,40,45,shmoo
1,85,40,45,shmoo
1,86,42,41,shmoo